{
  "firestore": {
    "rules": "firestore.rules",
    "indexes": "firestore.indexes.json"
  },
  "storage": {
    "rules": "storage.rules"
  },
  "hosting": [
    {
      "target": "app",
      "public": "build",
      "ignore": [
        "**/node_modules/**",
        "firebase.json",
        "cypress.env.json",
        "cypress.json",
        "serviceAccount.json",
        "*.json",
        "*.md",
        "*.log",
        "**/.*",
        "Dockerfile",
        "LICENSE",
        "build",
        "docs",
        "src",
        "test"
      ],
      "rewrites": [
        {
          "source": "**",
          "destination": "/index.html"
        }
      ]
    },
    {
      "target": "stageApp",
      "public": "build",
      "ignore": [
        "**/node_modules/**",
        "firebase.json",
        "cypress.env.json",
        "cypress.json",
        "serviceAccount.json",
        "*.json",
        "*.md",
        "*.log",
        "**/.*",
        "Dockerfile",
        "LICENSE",
        "coverage",
        "docs",
        "src",
        "test"
      ],
      "rewrites": [
        {
          "source": "**",
          "destination": "/index.html"
        }
      ]
    }
  ],
  "functions": {
    "predeploy": [
      "npm --prefix \"$RESOURCE_DIR\" run build"
    ],
    "ignore": [
      "**/node_modules/**",
      ".runtimeconfig.json",
      "jsconfig.json",
      "*.md",
      "*.log",
      "**/.*",
      "Dockerfile",
      "LICENSE",
      "build",
      "coverage",
      "src",
      "test"
    ]
  }
}